999
"DXF R12 Output" (www.mydxf.blogspot.com)
 0 
SECTION
 2 
HEADER
 9 
$ACADVER
 1 
AC1009
 9 
$EXTMIN
 10 
 0 
 20 
 0 
 9 
$EXTMAX
 10 
 8.5 
 20 
 11 
 0 
ENDSEC
 0 
SECTION
 2 
ENTITIES
0
LINE
8
Layer 1
10
103.010460
20
239.723789
11
102.887575
21
237.290208
0
LINE
8
Layer 1
10
102.887575
20
237.290208
11
102.526895
21
234.926925
0
LINE
8
Layer 1
10
102.526895
20
234.926925
11
101.940384
21
232.645904
0
LINE
8
Layer 1
10
101.940384
20
232.645904
11
101.140007
21
230.459109
0
LINE
8
Layer 1
10
101.140007
20
230.459109
11
100.137728
21
228.378505
0
LINE
8
Layer 1
10
100.137728
20
228.378505
11
98.945510
21
226.416056
0
LINE
8
Layer 1
10
98.945510
20
226.416056
11
97.575318
21
224.583724
0
LINE
8
Layer 1
10
97.575318
20
224.583724
11
96.039115
21
222.893475
0
LINE
8
Layer 1
10
96.039115
20
222.893475
11
94.348866
21
221.357273
0
LINE
8
Layer 1
10
94.348866
20
221.357273
11
92.516535
21
219.987080
0
LINE
8
Layer 1
10
92.516535
20
219.987080
11
90.554085
21
218.794863
0
LINE
8
Layer 1
10
90.554085
20
218.794863
11
88.473481
21
217.792583
0
LINE
8
Layer 1
10
88.473481
20
217.792583
11
86.286686
21
216.992206
0
LINE
8
Layer 1
10
86.286686
20
216.992206
11
84.005665
21
216.405696
0
LINE
8
Layer 1
10
84.005665
20
216.405696
11
81.642382
21
216.045016
0
LINE
8
Layer 1
10
81.642382
20
216.045016
11
79.208801
21
215.922131
0
LINE
8
Layer 1
10
79.208801
20
215.922131
11
76.775220
21
216.045016
0
LINE
8
Layer 1
10
76.775220
20
216.045016
11
74.411937
21
216.405696
0
LINE
8
Layer 1
10
74.411937
20
216.405696
11
72.130916
21
216.992207
0
LINE
8
Layer 1
10
72.130916
20
216.992207
11
69.944122
21
217.792584
0
LINE
8
Layer 1
10
69.944122
20
217.792584
11
67.863518
21
218.794863
0
LINE
8
Layer 1
10
67.863518
20
218.794863
11
65.901068
21
219.987081
0
LINE
8
Layer 1
10
65.901068
20
219.987081
11
64.068737
21
221.357273
0
LINE
8
Layer 1
10
64.068737
20
221.357273
11
62.378488
21
222.893476
0
LINE
8
Layer 1
10
62.378488
20
222.893476
11
60.842285
21
224.583725
0
LINE
8
Layer 1
10
60.842285
20
224.583725
11
59.472093
21
226.416056
0
LINE
8
Layer 1
10
59.472093
20
226.416056
11
58.279875
21
228.378506
0
LINE
8
Layer 1
10
58.279875
20
228.378506
11
57.277596
21
230.459110
0
LINE
8
Layer 1
10
57.277596
20
230.459110
11
56.477219
21
232.645904
0
LINE
8
Layer 1
10
56.477219
20
232.645904
11
55.890708
21
234.926925
0
LINE
8
Layer 1
10
55.890708
20
234.926925
11
55.530028
21
237.290208
0
LINE
8
Layer 1
10
55.530028
20
237.290208
11
55.407143
21
239.723789
0
LINE
8
Layer 1
10
55.407143
20
239.723789
11
55.530028
21
242.157370
0
LINE
8
Layer 1
10
55.530028
20
242.157370
11
55.890708
21
244.520653
0
LINE
8
Layer 1
10
55.890708
20
244.520653
11
56.477218
21
246.801674
0
LINE
8
Layer 1
10
56.477218
20
246.801674
11
57.277595
21
248.988469
0
LINE
8
Layer 1
10
57.277595
20
248.988469
11
58.279875
21
251.069073
0
LINE
8
Layer 1
10
58.279875
20
251.069073
11
59.472092
21
253.031523
0
LINE
8
Layer 1
10
59.472092
20
253.031523
11
60.842285
21
254.863854
0
LINE
8
Layer 1
10
60.842285
20
254.863854
11
62.378487
21
256.554103
0
LINE
8
Layer 1
10
62.378487
20
256.554103
11
64.068736
21
258.090306
0
LINE
8
Layer 1
10
64.068736
20
258.090306
11
65.901068
21
259.460498
0
LINE
8
Layer 1
10
65.901068
20
259.460498
11
67.863517
21
260.652716
0
LINE
8
Layer 1
10
67.863517
20
260.652716
11
69.944121
21
261.654995
0
LINE
8
Layer 1
10
69.944121
20
261.654995
11
72.130916
21
262.455372
0
LINE
8
Layer 1
10
72.130916
20
262.455372
11
74.411937
21
263.041883
0
LINE
8
Layer 1
10
74.411937
20
263.041883
11
76.775220
21
263.402563
0
LINE
8
Layer 1
10
76.775220
20
263.402563
11
79.208801
21
263.525448
0
LINE
8
Layer 1
10
79.208801
20
263.525448
11
81.561303
21
263.408979
0
LINE
8
Layer 1
10
81.561303
20
263.408979
11
83.873958
21
263.063880
0
LINE
8
Layer 1
10
83.873958
20
263.063880
11
86.131160
21
262.496617
0
LINE
8
Layer 1
10
86.131160
20
262.496617
11
88.317302
21
261.713655
0
LINE
8
Layer 1
10
88.317302
20
261.713655
11
90.416775
21
260.721457
0
LINE
8
Layer 1
10
90.416775
20
260.721457
11
92.413973
21
259.526490
0
LINE
8
Layer 1
10
92.413973
20
259.526490
11
94.293289
21
258.135217
0
LINE
8
Layer 1
10
94.293289
20
258.135217
11
96.039115
21
256.554103
0
LINE
8
Layer 1
10
96.039115
20
256.554103
11
97.620229
21
254.808277
0
LINE
8
Layer 1
10
97.620229
20
254.808277
11
99.011502
21
252.928961
0
LINE
8
Layer 1
10
99.011502
20
252.928961
11
100.206469
21
250.931763
0
LINE
8
Layer 1
10
100.206469
20
250.931763
11
101.198667
21
248.832290
0
LINE
8
Layer 1
10
101.198667
20
248.832290
11
101.981629
21
246.646148
0
LINE
8
Layer 1
10
101.981629
20
246.646148
11
102.548892
21
244.388946
0
LINE
8
Layer 1
10
102.548892
20
244.388946
11
102.893991
21
242.076291
0
LINE
8
Layer 1
10
102.893991
20
242.076291
11
103.010460
21
239.723789
0
LINE
8
Layer 1
10
103.010460
20
239.723789
11
103.010460
21
239.723789
0
LINE
8
Layer 1
10
160.043130
20
35.117460
11
145.156000
21
46.099020
0
LINE
8
Layer 1
10
145.156000
20
46.099020
11
127.669920
21
40.060980
0
LINE
8
Layer 1
10
127.669920
20
40.060980
11
133.513630
21
57.612960
0
LINE
8
Layer 1
10
133.513630
20
57.612960
11
122.367610
21
72.377350
0
LINE
8
Layer 1
10
122.367610
20
72.377350
11
140.866350
21
72.243520
0
LINE
8
Layer 1
10
140.866350
20
72.243520
11
151.463810
21
87.406460
0
LINE
8
Layer 1
10
151.463810
20
87.406460
11
157.052950
21
69.771760
0
LINE
8
Layer 1
10
157.052950
20
69.771760
11
174.748560
21
64.378580
0
LINE
8
Layer 1
10
174.748560
20
64.378580
11
159.704100
21
53.613570
0
LINE
8
Layer 1
10
159.704100
20
53.613570
11
160.043130
21
35.117460
 0 
ENDSEC
 0 
EOF